{
  "beneficiaryName": "FARMER NAME(1)",
  "aadhaarNumber": "ADHAR NO.(2)",
  "beneficiaryPassbookName": "beneficiary passbook name(3)",
  "mobile": "MOB NO.(4)",
  "dob": "DATE OF BIRTH(5)",
  "gender": "GENDER(male-1,female-2,other-3)(6)",
  "socialCategory": "SOCIAL CATEGORY(GEN-1,OBC-2,ST-3,SC-4)(7)",
  "farmerCategory": "FARMER CATEGORY(OWNER-1,TENANT-3,SHARECOOPER-2)(8)",
  "farmerType": "FARMER TYPE SMALL-1,MARGINAL-2,OTHERS-3(9)",
  "primaryOccupation": "PRIMARY OCCUPATION FARMER-1,FISHRIES-2,ANIMAL- HUSBANDRY-3(10)",
  "relativeType": "RELATIVE TYPE(S/O-1,D/O-2,C/O-3,W/O-4)(11)",
  "relativeName": "RELATIVE NAME(12)",
  "residentialVillage": "VILLAGE NAME(13)",
  "residentialAddress": "ADDRESS(14)",
  "residentialPincode": "PIN CODE(15)",
  "accountNumber": "LOAN AC NO.(16)",
  "branchCode": "BRANCH CODE AS PER KCC ISS PORTAL(17)",
  "ifsc": "IFSC(18)",
  "accountHolder": "A/C HOLDER TYPE SINGLE-1,JOINT-2(19)",
  "joint_name": "JOINT A/C HOLDER NAME(42)",
  "joint_aadhaarNumber": "JOINT A/C HOLDER ADHAR(43)",
  "joint_isPrimary": "JOINT A/C HOLDER TYPE PRIMARY-1,SECONDARY-0(44)",
  "kccLoanSanctionedDate": "LOAN SANCTION OR RENEW DATE(20)",
  "kccLimitSanctionedAmount": "LAON SANCTION OR RENEW AMOUNT(21)",
  "kccDrawingLimitForFY": "kccDrawingLimitforFY(22)",
  "activityType": "ACTIVITY TYPE AGRI -1,HORTI&VEG CROP-2,ANIMAL HUSBANDRY-3.INLAND FISHERIES-4,MARINE-FISHEREIES-5(23)",
  "loanSanctionedDate": "LOAN SANCTION DATE(24)",
  "loanSanctionedAmount": "LOAN SANCTION OR RENEWEL AMOUNT(25)",
  "landVillage": "LAND VILLAGE CODE(26)",
  "cropCode": "CROP CODE(27)",
  "surveyNumber": "SURVEY NO.(28)",
  "khataNumber": "KHATA NO.(29)",
  "landArea": "AREA (HCTR)(30)",
  "landType": "LAND TYPE (IRRIGATED-1,NON IRRIGATED-2)(31)",
  "season": "SEASON(KHARIF-1,RABI-2)(32)",
  "plantationCode": "PLANTATION CODE(33)",
  "plantationArea": "PLANTATION AREA(34)",
  "liveStockType": "LIVE STOCK TYPE(35)",
  "liveStockCode": "LIVE STOCK CODE(36)",
  "unitCount": "UNIT CODE(37)",
  "inlandType": "INLAND TYPE(38)",
  "totalUnits": "TOTAL UNIT(39)",
  "totalArea": "TOTAL AREA(40)",
  "marineType": "MARINE TYPE(41)"
}